"PRODUCTO","CANTIDAD","UNIDAD","DESCRIPCION","PRECIO","IMPUESTOS"
"Deposit",1,"Units","Deposit",10000,"Tax 15.00%"
"Large Cabinet",2,"Units","Large Cabinet",50000,"Tax 15.00%"
"Pedal Bin",1,"Units","Pedal Bin",2000,
"Cabinet with Doors",3,"Units","Cabinet with Doors",100000,"Tax 15.00%"
"Hotel Accommodation",1,"Units","Hotel Accommodation",10000,
